{
    "additionalProperties": false,
    "title": "CategoryResponse",
    "type": "object",
    "properties": {
      "id": {
        "type": "number"
      },
      "name": {
        "type": "string"
      }
    },
    "categoryName": [
      "name"
    ]
  }