{
    "additionalProperties": false,
    "type": "object",
    "title": "EmployeeAccountResponse",
    "properties": {
        "idAccount": {
            "type": "number"
        },
        "id": {
            "type": "number"
        },
        "identityCard": {
            "type": "string"
        },
        "firstName": {
            "type": "string"
        },
        "lastName": {
            "type": "string"
        },
        "createdAt": {
            "type": "number"
        },
        "updatedAt": {
            "type": "number"
        }
    }
}