{
    "$schema": "http://json-schema.org/draft-04/schema#",
    "id": "http://pcr/employee",
    "additionalProperties": false,
    "title": "EmployeeResponse",
    "type": "object",
    "properties": {
        "id": {
            "type": "number"
        },
        "role": {
            "type": "string"
        },
        "names": {
            "type": "string"
        },
        "lastnames": {
            "type": "string"
        },
        "documentType": {
            "type": "string"
        },
        "documentNumber": {
            "type": "string"
        },
        "email": {
            "type": "string"
        },
        "password": {
            "type": "string"
        },
        "status": {
            "type": "number"
        },
        "createdAt": {
            "type": "number"
        },
        "updatedAt": {
            "type": "number"
        }
    },
    "required": [
        "names",
        "lastnames",
        "documentNumber"
    ]
}